module bitbucket.org/mahavirsingh1bs/shippy-service-consignment

go 1.13

require (
	github.com/golang/protobuf v1.3.3
	golang.org/x/net v0.0.0-20200225223329-5d076fcf07a8 // indirect
	golang.org/x/sys v0.0.0-20200223170610-d5e6a3e2c0ae // indirect
	golang.org/x/text v0.3.2 // indirect
	google.golang.org/genproto v0.0.0-20200225123651-fc8f55426688 // indirect
	google.golang.org/grpc v1.27.1
)
